<?xml version="1.0" encoding="utf-8"?>
<!-- Generator: Adobe Illustrator 15.0.0, SVG Export Plug-In . SVG Version: 6.00 Build 0)  -->
<!DOCTYPE svg PUBLIC "-//W3C//DTD SVG 1.1//EN" "http://www.w3.org/Graphics/SVG/1.1/DTD/svg11.dtd">
<svg version="1.1" id="Livello_1" focusable="false"
	 xmlns="http://www.w3.org/2000/svg" xmlns:xlink="http://www.w3.org/1999/xlink" x="0px" y="0px" width="595.279px"
	 height="793.707px" viewBox="0 24.092 595.279 793.707" enable-background="new 0 24.092 595.279 793.707" xml:space="preserve">
<path fill="#ED1C24" d="M347.246,234.92V24.092H37.205C16.587,24.092,0,40.679,0,61.296v719.297
	c0,20.617,16.587,37.205,37.205,37.205h520.87c20.617,0,37.204-16.588,37.204-37.205V272.125H384.451
	C363.989,272.125,347.246,255.383,347.246,234.92z M465.76,562.572L316.289,710.927c-10.31,10.246-26.958,10.246-37.268,0
	L129.551,562.572c-15.734-15.609-4.697-42.414,17.439-42.414h101.043V396.142c0-13.704,11.1-24.803,24.804-24.803h49.606
	c13.703,0,24.803,11.1,24.803,24.803v124.016h101.043C470.426,520.158,481.464,546.962,465.76,562.572L465.76,562.572z
	 M584.429,186.863L432.663,34.943c-6.977-6.976-16.433-10.851-26.354-10.851h-9.456v198.427H595.28v-9.457
	C595.28,203.296,591.405,193.839,584.429,186.863z"/>
</svg>
